World War II Flying Aces - Exploratory data analysis (part 2/5) · Thoughts, Questions, & Errata
…
The dplyr::case_when() statement comes in handy if you need to create a new categorical variable. It can handle any argument that evaluates to TRUE or FALSE, which means there a ton of options for defining categories. Below I use the stringr::str_detect() function to identify the Axis and Allied countries I’ve stored in the regex vectors I created above.

I also like to visually inspect new categorical variables with tidyr::spread().

WW2Aces <- WW2Aces %>%
  dplyr::mutate(force = dplyr::case_when(
    str_detect(string = country, pattern = axis_regex) ~ "Axis",
    str_detect(string = country, pattern = allied_regex) ~ "Allied")) 
# verify this with tidyr
WW2Aces %>% 
    dplyr::count(force, country) %>% 
    tidyr::spread(force, n)

#>  # A tibble: 31 x 3
#>     country        Allied  Axis
#>     <chr>           <int> <int>
#>   1 Australia          31    NA
#>   2 Belgium             1    NA
#>   3 Bulgaria           NA     1
#>   4 Canada             23    NA
#>   5 China               3    NA
#>   6 Croatia            NA    12
#>   7 Czechoslovakia     29    NA
#>   8 Finland            NA    53
#>   9 France              5    NA
#>  10 Germany            NA   446
#>  # … with 21 more rows
…
