…
The average number of aerial victories

The last post ended by showing Germany had the highest average number of aerial victories among WW2 flying aces. Below is a display of the top 10 mean aerial victories (air_vic) by country.

  WW2FlyingAces %>%
    dplyr::group_by(country) %>%
    dplyr::summarize(`mean aerial victory` = mean(air_vic)) %>%
    dplyr::mutate(`mean aerial victory` = round(`mean aerial victory`, 2)) %>% 
    dplyr::arrange(desc(`mean aerial victory`))
  # A tibble: 31 x 2
     country              `mean aerial victory`
     <chr>                                <dbl>
   1 Germany                               76.6
   2 Soviet Union                          40.3
   3 Japan                                 36.3
   4 Ireland                               28  
   5 Nazi Germany/ Brazil                  25  
   6 South Africa                          22.3
   7 France                                22.2
   8 Finland                               22.1
   9 Slovak Republic                       18.7
  10 New Zealand                           17.7
  # … with 21 more rows
…
